{
  "retailerId": "<RETAILER_ID>",
  "version": "1.0",
  "entityType": "PAYMENT",
  "entitySubtype": "DEFAULT",
  "description": "Default Payment Workflow",
  "versionComment": "Initial version",
  "name": "PAYMENT::DEFAULT",
  "rulesets": [
    {
      "name": "CREATE",
      "description": "On Payment Create",
      "type": "PAYMENT",
      "subtype": "DEFAULT",
      "eventType": "NORMAL",
      "rules": [
        {
          "name": "FLUENTRETAIL.base.SendScheduledEvent",
          "props": {
            "delay": 5,
            "eventName": "UpdateBillingAccountForPayment"
          }
        }
      ],
      "triggers": [
        {
          "status": "CREATED"
        }
      ],
      "userActions": []
    },
    {
      "name": "UpdateBillingAccountForPayment",
      "description": "Update Billing Account Link For Payment",
      "type": "PAYMENT",
      "subtype": "DEFAULT",
      "eventType": "NORMAL",
      "rules": [
        {
          "name": "FLUENTRETAIL.base.UpdateBillingAccountForPayment"
        }
      ],
      "triggers": [
        {
          "status": "CREATED"
        }
      ],
      "userActions": []
    }
  ],
  "statuses": [
    {
      "name": "CREATED",
      "entityType": "PAYMENT",
      "category": "BOOKING"
    }
  ]
}