createBatchJob,createInventoryJob,createOrder,getOrder,payment,getOrder,pauseOrder,getOrder,resumeOrder,getOrder,pickUpdate,getOrder,packUpdate,getOrder,dispatchUpdate,getOrder
response.id != null,,"response.data.createOrder.status.equalsIgnoreCase(""CREATED"")","response.data.order.status.equalsIgnoreCase(""PENDING_PAYMENT"")",,"response.data.order.status.equalsIgnoreCase(""REMORSE"")",,"response.data.order.status.equalsIgnoreCase(""PAUSED"")",,"response.data.order.status.equalsIgnoreCase(""BOOKED"")",,"response.data.order.status.equalsIgnoreCase(""PICK_PACK"")",,"response.data.order.status.equalsIgnoreCase(""AWAITING_COURIER"")",,"response.data.order.status.equalsIgnoreCase(""SHIPPED"")"
,,,"response.data.order.fulfilments.edges[0].node.status.equalsIgnoreCase(""PENDING_PAYMENT"")",,,,"response.data.order.fulfilments.edges[0].node.status.equalsIgnoreCase(""PENDING_ASSIGNMENT"")",,,,"response.data.order.fulfilments.edges[0].node.status.equalsIgnoreCase(""PICK"")",,"response.data.order.fulfilments.edges[0].node.status.equalsIgnoreCase(""AWAITING_COURIER"")",,"response.data.order.fulfilments.edges[0].node.status.equalsIgnoreCase(""SHIPPED"")"
