[
  {
    "country": "Australia",
    "isoCode": "AU",
    "site": "Australia New Zealand",
    "oraclePostingStoreName": "Australia",
    "oraclePostingStoreNumber": 1044,
    "administrativeArea_Level1": "n/a",
    "countryMapping": "Australia",
    "fluentLocationRef": "UK",
    "storefront_WebsiteBrand": "n/a",
    "defaultWH": 101,
    "defaultWHName": "Citadel - Virtual Warehouse"
  },
  {
    "country": "Australia",
    "isoCode": "AU",
    "site": "Australia New Zealand",
    "oraclePostingStoreName": "Australia - WH 3PL",
    "oraclePostingStoreNumber": 2044,
    "administrativeArea_Level1": "n/a",
    "countryMapping": "Australia",
    "fluentLocationRef": "AU",
    "storefront_WebsiteBrand": "n/a",
    "defaultWH": 201,
    "defaultWHName": "Australia 3PL  - Virtual Warehouse"
  },
  {
    "country": "New Zealand",
    "isoCode": "NZ",
    "site": "Australia New Zealand",
    "oraclePostingStoreName": "New Zealand",
    "oraclePostingStoreNumber": 1045,
    "administrativeArea_Level1": "n/a",
    "countryMapping": "New Zealand",
    "fluentLocationRef": "UK",
    "storefront_WebsiteBrand": "n/a",
    "defaultWH": 101,
    "defaultWHName": "Citadel - Virtual Warehouse"
  },
  {
    "country": "New Zealand",
    "isoCode": "NZ",
    "site": "Australia New Zealand",
    "oraclePostingStoreName": "New Zealand - WH 3PL",
    "oraclePostingStoreNumber": 2045,
    "administrativeArea_Level1": "n/a",
    "countryMapping": "New Zealand",
    "fluentLocationRef": "AU",
    "storefront_WebsiteBrand": "n/a",
    "defaultWH": 201,
    "defaultWHName": "Australia 3PL  - Virtual Warehouse"
  },
  {
    "country": "Canada",
    "isoCode": "CA",
    "site": "Canada",
    "oraclePostingStoreName": "Canada",
    "oraclePostingStoreNumber": 1048,
    "administrativeArea_Level1": "n/a",
    "countryMapping": "Canada",
    "fluentLocationRef": "UK",
    "storefront_WebsiteBrand": "n/a",
    "defaultWH": 101,
    "defaultWHName": "Citadel - Virtual Warehouse"
  },
  {
    "country": "Canada",
    "isoCode": "CA",
    "site": "Canada",
    "oraclePostingStoreName": "CA- WH 3PL",
    "oraclePostingStoreNumber": 2048,
    "administrativeArea_Level1": "n/a",
    "countryMapping": "Canada",
    "fluentLocationRef": "US",
    "storefront_WebsiteBrand": "n/a",
    "defaultWH": 301,
    "defaultWHName": "USA 3PL  - Virtual Warehouse"
  },
  {
    "country": "Albania",
    "isoCode": "AL",
    "site": "Rest of World",
    "oraclePostingStoreName": "Rest of Eastern Europe",
    "oraclePostingStoreNumber": 1059,
    "administrativeArea_Level1": "n/a",
    "countryMapping": "Albania",
    "fluentLocationRef": "UK",
    "storefront_WebsiteBrand": "n/a",
    "defaultWH": 101,
    "defaultWHName": "Citadel - Virtual Warehouse"
  },
  {
    "country": "Andorra",
    "isoCode": "AD",
    "site": "Europe",
    "oraclePostingStoreName": "Rest of Europe",
    "oraclePostingStoreNumber": 1041,
    "administrativeArea_Level1": "n/a",
    "countryMapping": "Andorra",
    "fluentLocationRef": "UK",
    "storefront_WebsiteBrand": "n/a",
    "defaultWH": 101,
    "defaultWHName": "Citadel - Virtual Warehouse"
  },
  {
    "country": "Austria",
    "isoCode": "AT",
    "site": "Europe",
    "oraclePostingStoreName": "Austria",
    "oraclePostingStoreNumber": 1009,
    "administrativeArea_Level1": "n/a",
    "countryMapping": "Austria",
    "fluentLocationRef": "UK",
    "storefront_WebsiteBrand": "n/a",
    "defaultWH": 101,
    "defaultWHName": "Citadel - Virtual Warehouse"
  },
  {
    "country": "Belgium",
    "isoCode": "BE",
    "site": "Europe",
    "oraclePostingStoreName": "Belgium",
    "oraclePostingStoreNumber": 1010,
    "administrativeArea_Level1": "n/a",
    "countryMapping": "Belgium",
    "fluentLocationRef": "UK",
    "storefront_WebsiteBrand": "n/a",
    "defaultWH": 101,
    "defaultWHName": "Citadel - Virtual Warehouse"
  },
  {
    "country": "Belarus",
    "isoCode": "BY",
    "site": "Rest of World",
    "oraclePostingStoreName": "Rest of Eastern Europe",
    "oraclePostingStoreNumber": 1059,
    "administrativeArea_Level1": "n/a",
    "countryMapping": "Belarus",
    "fluentLocationRef": "UK",
    "storefront_WebsiteBrand": "n/a",
    "defaultWH": 101,
    "defaultWHName": "Citadel - Virtual Warehouse"
  },
  {
    "country": "Bulgaria",
    "isoCode": "BG",
    "site": "Europe",
    "oraclePostingStoreName": "Bulgaria",
    "oraclePostingStoreNumber": 1011,
    "administrativeArea_Level1": "n/a",
    "countryMapping": "Bulgaria",
    "fluentLocationRef": "UK",
    "storefront_WebsiteBrand": "n/a",
    "defaultWH": 101,
    "defaultWHName": "Citadel - Virtual Warehouse"
  },
  {
    "country": "Croatia",
    "isoCode": "HR",
    "site": "Europe",
    "oraclePostingStoreName": "Croatia",
    "oraclePostingStoreNumber": 1012,
    "administrativeArea_Level1": "n/a",
    "countryMapping": "Croatia",
    "fluentLocationRef": "UK",
    "storefront_WebsiteBrand": "n/a",
    "defaultWH": 101,
    "defaultWHName": "Citadel - Virtual Warehouse"
  },
  {
    "country": "Cyprus",
    "isoCode": "CY",
    "site": "Europe",
    "oraclePostingStoreName": "Cyprus",
    "oraclePostingStoreNumber": 1013,
    "administrativeArea_Level1": "n/a",
    "countryMapping": "Cyprus",
    "fluentLocationRef": "UK",
    "storefront_WebsiteBrand": "n/a",
    "defaultWH": 101,
    "defaultWHName": "Citadel - Virtual Warehouse"
  },
  {
    "country": "Czech Republic",
    "isoCode": "CZ",
    "site": "Europe",
    "oraclePostingStoreName": "Czech Republic",
    "oraclePostingStoreNumber": 1014,
    "administrativeArea_Level1": "n/a",
    "countryMapping": "Czech Republic",
    "fluentLocationRef": "UK",
    "storefront_WebsiteBrand": "n/a",
    "defaultWH": 101,
    "defaultWHName": "Citadel - Virtual Warehouse"
  },
  {
    "country": "Denmark",
    "isoCode": "DK",
    "site": "Europe",
    "oraclePostingStoreName": "Denmark",
    "oraclePostingStoreNumber": 1015,
    "administrativeArea_Level1": "n/a",
    "countryMapping": "Denmark",
    "fluentLocationRef": "UK",
    "storefront_WebsiteBrand": "n/a",
    "defaultWH": 101,
    "defaultWHName": "Citadel - Virtual Warehouse"
  },
  {
    "country": "Estonia",
    "isoCode": "EE",
    "site": "Europe",
    "oraclePostingStoreName": "Estonia",
    "oraclePostingStoreNumber": 1016,
    "administrativeArea_Level1": "n/a",
    "countryMapping": "Estonia",
    "fluentLocationRef": "UK",
    "storefront_WebsiteBrand": "n/a",
    "defaultWH": 101,
    "defaultWHName": "Citadel - Virtual Warehouse"
  },
  {
    "country": "Finland",
    "isoCode": "FI",
    "site": "Europe",
    "oraclePostingStoreName": "Finland",
    "oraclePostingStoreNumber": 1017,
    "administrativeArea_Level1": "n/a",
    "countryMapping": "Finland",
    "fluentLocationRef": "UK",
    "storefront_WebsiteBrand": "n/a",
    "defaultWH": 101,
    "defaultWHName": "Citadel - Virtual Warehouse"
  },
  {
    "country": "France",
    "isoCode": "FR",
    "site": "Europe",
    "oraclePostingStoreName": "France",
    "oraclePostingStoreNumber": 1007,
    "administrativeArea_Level1": "n/a",
    "countryMapping": "France",
    "fluentLocationRef": "UK",
    "storefront_WebsiteBrand": "n/a",
    "defaultWH": 101,
    "defaultWHName": "Citadel - Virtual Warehouse"
  },
  {
    "country": "France (Corsica)",
    "isoCode": "FR",
    "site": "Europe",
    "oraclePostingStoreName": "France (Corsica)",
    "oraclePostingStoreNumber": 1018,
    "administrativeArea_Level1": "Corsica",
    "countryMapping": "France",
    "fluentLocationRef": "UK",
    "storefront_WebsiteBrand": "n/a",
    "defaultWH": 101,
    "defaultWHName": "Citadel - Virtual Warehouse"
  },
  {
    "country": "Germany",
    "isoCode": "DE",
    "site": "Europe",
    "oraclePostingStoreName": "Germany",
    "oraclePostingStoreNumber": 1006,
    "administrativeArea_Level1": "n/a",
    "countryMapping": "Germany",
    "fluentLocationRef": "UK",
    "storefront_WebsiteBrand": "n/a",
    "defaultWH": 101,
    "defaultWHName": "Citadel - Virtual Warehouse"
  },
  {
    "country": "Greece",
    "isoCode": "GR",
    "site": "Europe",
    "oraclePostingStoreName": "Greece",
    "oraclePostingStoreNumber": 1019,
    "administrativeArea_Level1": "n/a",
    "countryMapping": "Greece",
    "fluentLocationRef": "UK",
    "storefront_WebsiteBrand": "n/a",
    "defaultWH": 101,
    "defaultWHName": "Citadel - Virtual Warehouse"
  },
  {
    "country": "Hungary",
    "isoCode": "HU",
    "site": "Europe",
    "oraclePostingStoreName": "Hungary",
    "oraclePostingStoreNumber": 1020,
    "administrativeArea_Level1": "n/a",
    "countryMapping": "Hungary",
    "fluentLocationRef": "UK",
    "storefront_WebsiteBrand": "n/a",
    "defaultWH": 101,
    "defaultWHName": "Citadel - Virtual Warehouse"
  },
  {
    "country": "Iceland",
    "isoCode": "IS",
    "site": "Europe",
    "oraclePostingStoreName": "Rest of Europe",
    "oraclePostingStoreNumber": 1041,
    "administrativeArea_Level1": "n/a",
    "countryMapping": "Iceland",
    "fluentLocationRef": "UK",
    "storefront_WebsiteBrand": "n/a",
    "defaultWH": 101,
    "defaultWHName": "Citadel - Virtual Warehouse"
  },
  {
    "country": "Irish Republic",
    "isoCode": "IE",
    "site": "Europe",
    "oraclePostingStoreName": "Irish Republic",
    "oraclePostingStoreNumber": 1021,
    "administrativeArea_Level1": "n/a",
    "countryMapping": "Irish Republic",
    "fluentLocationRef": "UK",
    "storefront_WebsiteBrand": "n/a",
    "defaultWH": 101,
    "defaultWHName": "Citadel - Virtual Warehouse"
  },
  {
    "country": "Italy",
    "isoCode": "IT",
    "site": "Europe",
    "oraclePostingStoreName": "Italy",
    "oraclePostingStoreNumber": 1022,
    "administrativeArea_Level1": "n/a",
    "countryMapping": "Italy",
    "fluentLocationRef": "UK",
    "storefront_WebsiteBrand": "n/a",
    "defaultWH": 101,
    "defaultWHName": "Citadel - Virtual Warehouse"
  },
  {
    "country": "Italy (Sardinia)",
    "isoCode": "IT",
    "site": "Europe",
    "oraclePostingStoreName": "Italy (Sardinia)",
    "oraclePostingStoreNumber": 1023,
    "administrativeArea_Level1": "Sardegna",
    "countryMapping": "Italy",
    "fluentLocationRef": "UK",
    "storefront_WebsiteBrand": "n/a",
    "defaultWH": 101,
    "defaultWHName": "Citadel - Virtual Warehouse"
  },
  {
    "country": "Italy (Sicily)",
    "isoCode": "IT",
    "site": "Europe",
    "oraclePostingStoreName": "Italy (Sicily)",
    "oraclePostingStoreNumber": 1024,
    "administrativeArea_Level1": "Sicilia",
    "countryMapping": "Italy",
    "fluentLocationRef": "UK",
    "storefront_WebsiteBrand": "n/a",
    "defaultWH": 101,
    "defaultWHName": "Citadel - Virtual Warehouse"
  },
  {
    "country": "Latvia",
    "isoCode": "LV",
    "site": "Europe",
    "oraclePostingStoreName": "Latvia",
    "oraclePostingStoreNumber": 1025,
    "administrativeArea_Level1": "n/a",
    "countryMapping": "Latvia",
    "fluentLocationRef": "UK",
    "storefront_WebsiteBrand": "n/a",
    "defaultWH": 101,
    "defaultWHName": "Citadel - Virtual Warehouse"
  },
  {
    "country": "Liechtenstein",
    "isoCode": "LI",
    "site": "Europe",
    "oraclePostingStoreName": "Rest of Europe",
    "oraclePostingStoreNumber": 1041,
    "administrativeArea_Level1": "n/a",
    "countryMapping": "Liechtenstein",
    "fluentLocationRef": "UK",
    "storefront_WebsiteBrand": "n/a",
    "defaultWH": 101,
    "defaultWHName": "Citadel - Virtual Warehouse"
  },
  {
    "country": "Lithuania",
    "isoCode": "LT",
    "site": "Europe",
    "oraclePostingStoreName": "Lithuania",
    "oraclePostingStoreNumber": 1026,
    "administrativeArea_Level1": "n/a",
    "countryMapping": "Lithuania",
    "fluentLocationRef": "UK",
    "storefront_WebsiteBrand": "n/a",
    "defaultWH": 101,
    "defaultWHName": "Citadel - Virtual Warehouse"
  },
  {
    "country": "Luxembourg",
    "isoCode": "LU",
    "site": "Europe",
    "oraclePostingStoreName": "Luxembourg",
    "oraclePostingStoreNumber": 1027,
    "administrativeArea_Level1": "n/a",
    "countryMapping": "Luxembourg",
    "fluentLocationRef": "UK",
    "storefront_WebsiteBrand": "n/a",
    "defaultWH": 101,
    "defaultWHName": "Citadel - Virtual Warehouse"
  },
  {
    "country": "Malta",
    "isoCode": "MT",
    "site": "Europe",
    "oraclePostingStoreName": "Malta",
    "oraclePostingStoreNumber": 1028,
    "administrativeArea_Level1": "n/a",
    "countryMapping": "Malta",
    "fluentLocationRef": "UK",
    "storefront_WebsiteBrand": "n/a",
    "defaultWH": 101,
    "defaultWHName": "Citadel - Virtual Warehouse"
  },
  {
    "country": "Moldova",
    "isoCode": "MD",
    "site": "Rest of World",
    "oraclePostingStoreName": "Rest of Eastern Europe",
    "oraclePostingStoreNumber": 1059,
    "administrativeArea_Level1": "n/a",
    "countryMapping": "Moldova",
    "fluentLocationRef": "UK",
    "storefront_WebsiteBrand": "n/a",
    "defaultWH": 101,
    "defaultWHName": "Citadel - Virtual Warehouse"
  },
  {
    "country": "Monaco",
    "isoCode": "MC",
    "site": "Europe",
    "oraclePostingStoreName": "Monaco",
    "oraclePostingStoreNumber": 1039,
    "administrativeArea_Level1": "n/a",
    "countryMapping": "Monaco",
    "fluentLocationRef": "UK",
    "storefront_WebsiteBrand": "n/a",
    "defaultWH": 101,
    "defaultWHName": "Citadel - Virtual Warehouse"
  },
  {
    "country": "Netherlands",
    "isoCode": "NL",
    "site": "Europe",
    "oraclePostingStoreName": "Netherlands",
    "oraclePostingStoreNumber": 1029,
    "administrativeArea_Level1": "n/a",
    "countryMapping": "Netherlands",
    "fluentLocationRef": "UK",
    "storefront_WebsiteBrand": "n/a",
    "defaultWH": 101,
    "defaultWHName": "Citadel - Virtual Warehouse"
  },
  {
    "country": "North Macedonia",
    "isoCode": "MK",
    "site": "Rest of World",
    "oraclePostingStoreName": "Rest of Eastern Europe",
    "oraclePostingStoreNumber": 1059,
    "administrativeArea_Level1": "n/a",
    "countryMapping": "North Macedonia",
    "fluentLocationRef": "UK",
    "storefront_WebsiteBrand": "n/a",
    "defaultWH": 101,
    "defaultWHName": "Citadel - Virtual Warehouse"
  },
  {
    "country": "Norway",
    "isoCode": "NO",
    "site": "Europe",
    "oraclePostingStoreName": "Norway",
    "oraclePostingStoreNumber": 1040,
    "administrativeArea_Level1": "n/a",
    "countryMapping": "Norway",
    "fluentLocationRef": "UK",
    "storefront_WebsiteBrand": "n/a",
    "defaultWH": 101,
    "defaultWHName": "Citadel - Virtual Warehouse"
  },
  {
    "country": "Poland",
    "isoCode": "PL",
    "site": "Europe",
    "oraclePostingStoreName": "Poland",
    "oraclePostingStoreNumber": 1030,
    "administrativeArea_Level1": "n/a",
    "countryMapping": "Poland",
    "fluentLocationRef": "UK",
    "storefront_WebsiteBrand": "n/a",
    "defaultWH": 101,
    "defaultWHName": "Citadel - Virtual Warehouse"
  },
  {
    "country": "Portugal",
    "isoCode": "PT",
    "site": "Europe",
    "oraclePostingStoreName": "Portugal",
    "oraclePostingStoreNumber": 1031,
    "administrativeArea_Level1": "n/a",
    "countryMapping": "Portugal",
    "fluentLocationRef": "UK",
    "storefront_WebsiteBrand": "n/a",
    "defaultWH": 101,
    "defaultWHName": "Citadel - Virtual Warehouse"
  },
  {
    "country": "Portugal (Azores)",
    "isoCode": "PT",
    "site": "Europe",
    "oraclePostingStoreName": "Portugal (Azores)",
    "oraclePostingStoreNumber": 1032,
    "administrativeArea_Level1": "Açores",
    "countryMapping": "Portugal",
    "fluentLocationRef": "UK",
    "storefront_WebsiteBrand": "n/a",
    "defaultWH": 101,
    "defaultWHName": "Citadel - Virtual Warehouse"
  },
  {
    "country": "Portugal (Madeira)",
    "isoCode": "PT",
    "site": "Europe",
    "oraclePostingStoreName": "Portugal (Madeira)",
    "oraclePostingStoreNumber": 1033,
    "administrativeArea_Level1": "Madeira",
    "countryMapping": "Portugal",
    "fluentLocationRef": "UK",
    "storefront_WebsiteBrand": "n/a",
    "defaultWH": 101,
    "defaultWHName": "Citadel - Virtual Warehouse"
  },
  {
    "country": "Romania",
    "isoCode": "RO",
    "site": "Europe",
    "oraclePostingStoreName": "Romania",
    "oraclePostingStoreNumber": 1034,
    "administrativeArea_Level1": "n/a",
    "countryMapping": "Romania",
    "fluentLocationRef": "UK",
    "storefront_WebsiteBrand": "n/a",
    "defaultWH": 101,
    "defaultWHName": "Citadel - Virtual Warehouse"
  },
  {
    "country": "San Marino",
    "isoCode": "SM",
    "site": "Europe",
    "oraclePostingStoreName": "Rest of Europe",
    "oraclePostingStoreNumber": 1041,
    "administrativeArea_Level1": "n/a",
    "countryMapping": "San Marino",
    "fluentLocationRef": "UK",
    "storefront_WebsiteBrand": "n/a",
    "defaultWH": 101,
    "defaultWHName": "Citadel - Virtual Warehouse"
  },
  {
    "country": "Slovakia",
    "isoCode": "SK",
    "site": "Europe",
    "oraclePostingStoreName": "Slovakia",
    "oraclePostingStoreNumber": 1035,
    "administrativeArea_Level1": "n/a",
    "countryMapping": "Slovakia",
    "fluentLocationRef": "UK",
    "storefront_WebsiteBrand": "n/a",
    "defaultWH": 101,
    "defaultWHName": "Citadel - Virtual Warehouse"
  },
  {
    "country": "Slovenia",
    "isoCode": "SI",
    "site": "Europe",
    "oraclePostingStoreName": "Slovenia",
    "oraclePostingStoreNumber": 1036,
    "administrativeArea_Level1": "n/a",
    "countryMapping": "Slovenia",
    "fluentLocationRef": "UK",
    "storefront_WebsiteBrand": "n/a",
    "defaultWH": 101,
    "defaultWHName": "Citadel - Virtual Warehouse"
  },
  {
    "country": "Spain",
    "isoCode": "ES",
    "site": "Europe",
    "oraclePostingStoreName": "Spain",
    "oraclePostingStoreNumber": 1008,
    "administrativeArea_Level1": "n/a",
    "countryMapping": "Spain",
    "fluentLocationRef": "UK",
    "storefront_WebsiteBrand": "n/a",
    "defaultWH": 101,
    "defaultWHName": "Citadel - Virtual Warehouse"
  },
  {
    "country": "Spain (Balearic Islands)",
    "isoCode": "ES",
    "site": "Europe",
    "oraclePostingStoreName": "Spain (Balearic Islands)",
    "oraclePostingStoreNumber": 1037,
    "administrativeArea_Level1": "Illes Balears",
    "countryMapping": "Spain",
    "fluentLocationRef": "UK",
    "storefront_WebsiteBrand": "n/a",
    "defaultWH": 101,
    "defaultWHName": "Citadel - Virtual Warehouse"
  },
  {
    "country": "Spain (Canary Islands)",
    "isoCode": "ES",
    "site": "Europe",
    "oraclePostingStoreName": "Spain (Canary Islands)",
    "oraclePostingStoreNumber": 1042,
    "administrativeArea_Level1": "Canarias",
    "countryMapping": "Spain",
    "fluentLocationRef": "UK",
    "storefront_WebsiteBrand": "n/a",
    "defaultWH": 101,
    "defaultWHName": "Citadel - Virtual Warehouse"
  },
  {
    "country": "Switzerland",
    "isoCode": "CH",
    "site": "Europe",
    "oraclePostingStoreName": "Switzerland",
    "oraclePostingStoreNumber": 1043,
    "administrativeArea_Level1": "n/a",
    "countryMapping": "Switzerland",
    "fluentLocationRef": "UK",
    "storefront_WebsiteBrand": "n/a",
    "defaultWH": 101,
    "defaultWHName": "Citadel - Virtual Warehouse"
  },
  {
    "country": "Ukraine",
    "isoCode": "UA",
    "site": "Rest of World",
    "oraclePostingStoreName": "Rest of Eastern Europe",
    "oraclePostingStoreNumber": 1059,
    "administrativeArea_Level1": "n/a",
    "countryMapping": "Ukraine",
    "fluentLocationRef": "UK",
    "storefront_WebsiteBrand": "n/a",
    "defaultWH": 101,
    "defaultWHName": "Citadel - Virtual Warehouse"
  },
  {
    "country": "Vatican City",
    "isoCode": "VA",
    "site": "Europe",
    "oraclePostingStoreName": "Rest of Europe",
    "oraclePostingStoreNumber": 1041,
    "administrativeArea_Level1": "n/a",
    "countryMapping": "Vatican City",
    "fluentLocationRef": "UK",
    "storefront_WebsiteBrand": "n/a",
    "defaultWH": 101,
    "defaultWHName": "Citadel - Virtual Warehouse"
  },
  {
    "country": "Sweden",
    "isoCode": "SE",
    "site": "Europe",
    "oraclePostingStoreName": "Sweden",
    "oraclePostingStoreNumber": 1038,
    "administrativeArea_Level1": "n/a",
    "countryMapping": "Sweden",
    "fluentLocationRef": "UK",
    "storefront_WebsiteBrand": "n/a",
    "defaultWH": 101,
    "defaultWHName": "Citadel - Virtual Warehouse"
  },
  {
    "country": "Japan",
    "isoCode": "JP",
    "site": "Japan",
    "oraclePostingStoreName": "Japan",
    "oraclePostingStoreNumber": 1049,
    "administrativeArea_Level1": "n/a",
    "countryMapping": "Japan",
    "fluentLocationRef": "UK",
    "storefront_WebsiteBrand": "n/a",
    "defaultWH": 101,
    "defaultWHName": "Citadel - Virtual Warehouse"
  },
  {
    "country": "Angola",
    "isoCode": "AO",
    "site": "Rest of World",
    "oraclePostingStoreName": "Africa",
    "oraclePostingStoreNumber": 1050,
    "administrativeArea_Level1": "n/a",
    "countryMapping": "Angola",
    "fluentLocationRef": "UK",
    "storefront_WebsiteBrand": "n/a",
    "defaultWH": 101,
    "defaultWHName": "Citadel - Virtual Warehouse"
  },
  {
    "country": "Argentina",
    "isoCode": "AR",
    "site": "Rest of World",
    "oraclePostingStoreName": "Rest of America",
    "oraclePostingStoreNumber": 1055,
    "administrativeArea_Level1": "n/a",
    "countryMapping": "Argentina",
    "fluentLocationRef": "UK",
    "storefront_WebsiteBrand": "n/a",
    "defaultWH": 101,
    "defaultWHName": "Citadel - Virtual Warehouse"
  },
  {
    "country": "Bahrain",
    "isoCode": "BH",
    "site": "Rest of World",
    "oraclePostingStoreName": "Middle East",
    "oraclePostingStoreNumber": 1054,
    "administrativeArea_Level1": "n/a",
    "countryMapping": "Bahrain",
    "fluentLocationRef": "UK",
    "storefront_WebsiteBrand": "n/a",
    "defaultWH": 101,
    "defaultWHName": "Citadel - Virtual Warehouse"
  },
  {
    "country": "Barbados",
    "isoCode": "BB",
    "site": "Rest of World",
    "oraclePostingStoreName": "Rest of America",
    "oraclePostingStoreNumber": 1055,
    "administrativeArea_Level1": "n/a",
    "countryMapping": "Barbados",
    "fluentLocationRef": "UK",
    "storefront_WebsiteBrand": "n/a",
    "defaultWH": 101,
    "defaultWHName": "Citadel - Virtual Warehouse"
  },
  {
    "country": "Bermuda",
    "isoCode": "BM",
    "site": "Rest of World",
    "oraclePostingStoreName": "Rest of America",
    "oraclePostingStoreNumber": 1055,
    "administrativeArea_Level1": "n/a",
    "countryMapping": "Bermuda",
    "fluentLocationRef": "UK",
    "storefront_WebsiteBrand": "n/a",
    "defaultWH": 101,
    "defaultWHName": "Citadel - Virtual Warehouse"
  },
  {
    "country": "Botswana",
    "isoCode": "BW",
    "site": "Rest of World",
    "oraclePostingStoreName": "Africa",
    "oraclePostingStoreNumber": 1050,
    "administrativeArea_Level1": "n/a",
    "countryMapping": "Botswana",
    "fluentLocationRef": "UK",
    "storefront_WebsiteBrand": "n/a",
    "defaultWH": 101,
    "defaultWHName": "Citadel - Virtual Warehouse"
  },
  {
    "country": "Brazil",
    "isoCode": "BR",
    "site": "Rest of World",
    "oraclePostingStoreName": "Rest of America",
    "oraclePostingStoreNumber": 1055,
    "administrativeArea_Level1": "n/a",
    "countryMapping": "Brazil",
    "fluentLocationRef": "UK",
    "storefront_WebsiteBrand": "n/a",
    "defaultWH": 101,
    "defaultWHName": "Citadel - Virtual Warehouse"
  },
  {
    "country": "Brunei Darussalam",
    "isoCode": "BN",
    "site": "Rest of World",
    "oraclePostingStoreName": "Rest of Asia",
    "oraclePostingStoreNumber": 1058,
    "administrativeArea_Level1": "n/a",
    "countryMapping": "Brunei Darussalam",
    "fluentLocationRef": "UK",
    "storefront_WebsiteBrand": "n/a",
    "defaultWH": 101,
    "defaultWHName": "Citadel - Virtual Warehouse"
  },
  {
    "country": "Cambodia",
    "isoCode": "KH",
    "site": "Rest of World",
    "oraclePostingStoreName": "Rest of Asia",
    "oraclePostingStoreNumber": 1058,
    "administrativeArea_Level1": "n/a",
    "countryMapping": "Cambodia",
    "fluentLocationRef": "UK",
    "storefront_WebsiteBrand": "n/a",
    "defaultWH": 101,
    "defaultWHName": "Citadel - Virtual Warehouse"
  },
  {
    "country": "Chile",
    "isoCode": "CL",
    "site": "Rest of World",
    "oraclePostingStoreName": "Rest of America",
    "oraclePostingStoreNumber": 1055,
    "administrativeArea_Level1": "n/a",
    "countryMapping": "Chile",
    "fluentLocationRef": "UK",
    "storefront_WebsiteBrand": "n/a",
    "defaultWH": 101,
    "defaultWHName": "Citadel - Virtual Warehouse"
  },
  {
    "country": "China",
    "isoCode": "CN",
    "site": "Rest of World",
    "oraclePostingStoreName": "China",
    "oraclePostingStoreNumber": 1051,
    "administrativeArea_Level1": "n/a",
    "countryMapping": "China",
    "fluentLocationRef": "UK",
    "storefront_WebsiteBrand": "n/a",
    "defaultWH": 101,
    "defaultWHName": "Citadel - Virtual Warehouse"
  },
  {
    "country": "Colombia",
    "isoCode": "CO",
    "site": "Rest of World",
    "oraclePostingStoreName": "Rest of America",
    "oraclePostingStoreNumber": 1055,
    "administrativeArea_Level1": "n/a",
    "countryMapping": "Colombia",
    "fluentLocationRef": "UK",
    "storefront_WebsiteBrand": "n/a",
    "defaultWH": 101,
    "defaultWHName": "Citadel - Virtual Warehouse"
  },
  {
    "country": "Egypt",
    "isoCode": "EG",
    "site": "Rest of World",
    "oraclePostingStoreName": "Africa",
    "oraclePostingStoreNumber": 1050,
    "administrativeArea_Level1": "n/a",
    "countryMapping": "Egypt",
    "fluentLocationRef": "UK",
    "storefront_WebsiteBrand": "n/a",
    "defaultWH": 101,
    "defaultWHName": "Citadel - Virtual Warehouse"
  },
  {
    "country": "French Polynesia",
    "isoCode": "PF",
    "site": "Rest of World",
    "oraclePostingStoreName": "Rest of Asia",
    "oraclePostingStoreNumber": 1058,
    "administrativeArea_Level1": "n/a",
    "countryMapping": "French Polynesia",
    "fluentLocationRef": "UK",
    "storefront_WebsiteBrand": "n/a",
    "defaultWH": 101,
    "defaultWHName": "Citadel - Virtual Warehouse"
  },
  {
    "country": "Greenland",
    "isoCode": "GL",
    "site": "Rest of World",
    "oraclePostingStoreName": "Rest of America",
    "oraclePostingStoreNumber": 1055,
    "administrativeArea_Level1": "n/a",
    "countryMapping": "Greenland",
    "fluentLocationRef": "UK",
    "storefront_WebsiteBrand": "n/a",
    "defaultWH": 101,
    "defaultWHName": "Citadel - Virtual Warehouse"
  },
  {
    "country": "Hong Kong",
    "isoCode": "HK",
    "site": "Rest of World",
    "oraclePostingStoreName": "Hong Kong",
    "oraclePostingStoreNumber": 1052,
    "administrativeArea_Level1": "n/a",
    "countryMapping": "Hong Kong",
    "fluentLocationRef": "UK",
    "storefront_WebsiteBrand": "n/a",
    "defaultWH": 101,
    "defaultWHName": "Citadel - Virtual Warehouse"
  },
  {
    "country": "India",
    "isoCode": "IN",
    "site": "Rest of World",
    "oraclePostingStoreName": "Rest of Asia",
    "oraclePostingStoreNumber": 1058,
    "administrativeArea_Level1": "n/a",
    "countryMapping": "India",
    "fluentLocationRef": "UK",
    "storefront_WebsiteBrand": "n/a",
    "defaultWH": 101,
    "defaultWHName": "Citadel - Virtual Warehouse"
  },
  {
    "country": "Indonesia",
    "isoCode": "ID",
    "site": "Rest of World",
    "oraclePostingStoreName": "Rest of Asia",
    "oraclePostingStoreNumber": 1058,
    "administrativeArea_Level1": "n/a",
    "countryMapping": "Indonesia",
    "fluentLocationRef": "UK",
    "storefront_WebsiteBrand": "n/a",
    "defaultWH": 101,
    "defaultWHName": "Citadel - Virtual Warehouse"
  },
  {
    "country": "Israel",
    "isoCode": "IL",
    "site": "Rest of World",
    "oraclePostingStoreName": "Middle East",
    "oraclePostingStoreNumber": 1054,
    "administrativeArea_Level1": "n/a",
    "countryMapping": "Israel",
    "fluentLocationRef": "UK",
    "storefront_WebsiteBrand": "n/a",
    "defaultWH": 101,
    "defaultWHName": "Citadel - Virtual Warehouse"
  },
  {
    "country": "Jordan",
    "isoCode": "JO",
    "site": "Rest of World",
    "oraclePostingStoreName": "Middle East",
    "oraclePostingStoreNumber": 1054,
    "administrativeArea_Level1": "n/a",
    "countryMapping": "Jordan",
    "fluentLocationRef": "UK",
    "storefront_WebsiteBrand": "n/a",
    "defaultWH": 101,
    "defaultWHName": "Citadel - Virtual Warehouse"
  },
  {
    "country": "Kazakhstan",
    "isoCode": "KZ",
    "site": "Rest of World",
    "oraclePostingStoreName": "Rest of Asia",
    "oraclePostingStoreNumber": 1058,
    "administrativeArea_Level1": "n/a",
    "countryMapping": "Kazakhstan",
    "fluentLocationRef": "UK",
    "storefront_WebsiteBrand": "n/a",
    "defaultWH": 101,
    "defaultWHName": "Citadel - Virtual Warehouse"
  },
  {
    "country": "Korea",
    "isoCode": "KR",
    "site": "Rest of World",
    "oraclePostingStoreName": "Korea",
    "oraclePostingStoreNumber": 1053,
    "administrativeArea_Level1": "n/a",
    "countryMapping": "Korea",
    "fluentLocationRef": "UK",
    "storefront_WebsiteBrand": "n/a",
    "defaultWH": 101,
    "defaultWHName": "Citadel - Virtual Warehouse"
  },
  {
    "country": "Kuwait",
    "isoCode": "KW",
    "site": "Rest of World",
    "oraclePostingStoreName": "Middle East",
    "oraclePostingStoreNumber": 1054,
    "administrativeArea_Level1": "n/a",
    "countryMapping": "Kuwait",
    "fluentLocationRef": "UK",
    "storefront_WebsiteBrand": "n/a",
    "defaultWH": 101,
    "defaultWHName": "Citadel - Virtual Warehouse"
  },
  {
    "country": "Kyrgyzstan",
    "isoCode": "KG",
    "site": "Rest of World",
    "oraclePostingStoreName": "Rest of Asia",
    "oraclePostingStoreNumber": 1058,
    "administrativeArea_Level1": "n/a",
    "countryMapping": "Kyrgyzstan",
    "fluentLocationRef": "UK",
    "storefront_WebsiteBrand": "n/a",
    "defaultWH": 101,
    "defaultWHName": "Citadel - Virtual Warehouse"
  },
  {
    "country": "Macao",
    "isoCode": "MO",
    "site": "Rest of World",
    "oraclePostingStoreName": "Rest of Asia",
    "oraclePostingStoreNumber": 1058,
    "administrativeArea_Level1": "n/a",
    "countryMapping": "Macao",
    "fluentLocationRef": "UK",
    "storefront_WebsiteBrand": "n/a",
    "defaultWH": 101,
    "defaultWHName": "Citadel - Virtual Warehouse"
  },
  {
    "country": "Malaysia",
    "isoCode": "MY",
    "site": "Rest of World",
    "oraclePostingStoreName": "Rest of Asia",
    "oraclePostingStoreNumber": 1058,
    "administrativeArea_Level1": "n/a",
    "countryMapping": "Malaysia",
    "fluentLocationRef": "UK",
    "storefront_WebsiteBrand": "n/a",
    "defaultWH": 101,
    "defaultWHName": "Citadel - Virtual Warehouse"
  },
  {
    "country": "Mauritius",
    "isoCode": "MU",
    "site": "Rest of World",
    "oraclePostingStoreName": "Africa",
    "oraclePostingStoreNumber": 1050,
    "administrativeArea_Level1": "n/a",
    "countryMapping": "Mauritius",
    "fluentLocationRef": "UK",
    "storefront_WebsiteBrand": "n/a",
    "defaultWH": 101,
    "defaultWHName": "Citadel - Virtual Warehouse"
  },
  {
    "country": "Mexico",
    "isoCode": "MX",
    "site": "Rest of World",
    "oraclePostingStoreName": "Rest of America",
    "oraclePostingStoreNumber": 1055,
    "administrativeArea_Level1": "n/a",
    "countryMapping": "Mexico",
    "fluentLocationRef": "UK",
    "storefront_WebsiteBrand": "n/a",
    "defaultWH": 101,
    "defaultWHName": "Citadel - Virtual Warehouse"
  },
  {
    "country": "Namibia",
    "isoCode": "NA",
    "site": "Rest of World",
    "oraclePostingStoreName": "Africa",
    "oraclePostingStoreNumber": 1050,
    "administrativeArea_Level1": "n/a",
    "countryMapping": "Namibia",
    "fluentLocationRef": "UK",
    "storefront_WebsiteBrand": "n/a",
    "defaultWH": 101,
    "defaultWHName": "Citadel - Virtual Warehouse"
  },
  {
    "country": "New Caledonia",
    "isoCode": "NC",
    "site": "Rest of World",
    "oraclePostingStoreName": "Rest of Asia",
    "oraclePostingStoreNumber": 1058,
    "administrativeArea_Level1": "n/a",
    "countryMapping": "New Caledonia",
    "fluentLocationRef": "UK",
    "storefront_WebsiteBrand": "n/a",
    "defaultWH": 101,
    "defaultWHName": "Citadel - Virtual Warehouse"
  },
  {
    "country": "Oman",
    "isoCode": "OM",
    "site": "Rest of World",
    "oraclePostingStoreName": "Middle East",
    "oraclePostingStoreNumber": 1054,
    "administrativeArea_Level1": "n/a",
    "countryMapping": "Oman",
    "fluentLocationRef": "UK",
    "storefront_WebsiteBrand": "n/a",
    "defaultWH": 101,
    "defaultWHName": "Citadel - Virtual Warehouse"
  },
  {
    "country": "Peru",
    "isoCode": "PE",
    "site": "Rest of World",
    "oraclePostingStoreName": "Rest of America",
    "oraclePostingStoreNumber": 1055,
    "administrativeArea_Level1": "n/a",
    "countryMapping": "Peru",
    "fluentLocationRef": "UK",
    "storefront_WebsiteBrand": "n/a",
    "defaultWH": 101,
    "defaultWHName": "Citadel - Virtual Warehouse"
  },
  {
    "country": "Philippines",
    "isoCode": "PH",
    "site": "Rest of World",
    "oraclePostingStoreName": "Rest of Asia",
    "oraclePostingStoreNumber": 1058,
    "administrativeArea_Level1": "n/a",
    "countryMapping": "Philippines",
    "fluentLocationRef": "UK",
    "storefront_WebsiteBrand": "n/a",
    "defaultWH": 101,
    "defaultWHName": "Citadel - Virtual Warehouse"
  },
  {
    "country": "Puerto Rico",
    "isoCode": "PR",
    "site": "Rest of World",
    "oraclePostingStoreName": "Rest of America",
    "oraclePostingStoreNumber": 1055,
    "administrativeArea_Level1": "n/a",
    "countryMapping": "Puerto Rico",
    "fluentLocationRef": "UK",
    "storefront_WebsiteBrand": "n/a",
    "defaultWH": 101,
    "defaultWHName": "Citadel - Virtual Warehouse"
  },
  {
    "country": "Qatar",
    "isoCode": "QA",
    "site": "Rest of World",
    "oraclePostingStoreName": "Middle East",
    "oraclePostingStoreNumber": 1054,
    "administrativeArea_Level1": "n/a",
    "countryMapping": "Qatar",
    "fluentLocationRef": "UK",
    "storefront_WebsiteBrand": "n/a",
    "defaultWH": 101,
    "defaultWHName": "Citadel - Virtual Warehouse"
  },
  {
    "country": "Reunion",
    "isoCode": "RE",
    "site": "Rest of World",
    "oraclePostingStoreName": "Africa",
    "oraclePostingStoreNumber": 1050,
    "administrativeArea_Level1": "n/a",
    "countryMapping": "Reunion",
    "fluentLocationRef": "UK",
    "storefront_WebsiteBrand": "n/a",
    "defaultWH": 101,
    "defaultWHName": "Citadel - Virtual Warehouse"
  },
  {
    "country": "Russia",
    "isoCode": "RU",
    "site": "Rest of World",
    "oraclePostingStoreName": "Russia",
    "oraclePostingStoreNumber": 1056,
    "administrativeArea_Level1": "n/a",
    "countryMapping": "Russia",
    "fluentLocationRef": "UK",
    "storefront_WebsiteBrand": "n/a",
    "defaultWH": 101,
    "defaultWHName": "Citadel - Virtual Warehouse"
  },
  {
    "country": "Saudi Arabia",
    "isoCode": "SA",
    "site": "Rest of World",
    "oraclePostingStoreName": "Middle East",
    "oraclePostingStoreNumber": 1054,
    "administrativeArea_Level1": "n/a",
    "countryMapping": "Saudi Arabia",
    "fluentLocationRef": "UK",
    "storefront_WebsiteBrand": "n/a",
    "defaultWH": 101,
    "defaultWHName": "Citadel - Virtual Warehouse"
  },
  {
    "country": "Seychelles",
    "isoCode": "SC",
    "site": "Rest of World",
    "oraclePostingStoreName": "Africa",
    "oraclePostingStoreNumber": 1050,
    "administrativeArea_Level1": "n/a",
    "countryMapping": "Seychelles",
    "fluentLocationRef": "UK",
    "storefront_WebsiteBrand": "n/a",
    "defaultWH": 101,
    "defaultWHName": "Citadel - Virtual Warehouse"
  },
  {
    "country": "Singapore",
    "isoCode": "SG",
    "site": "Rest of World",
    "oraclePostingStoreName": "Singapore",
    "oraclePostingStoreNumber": 1057,
    "administrativeArea_Level1": "n/a",
    "countryMapping": "Singapore",
    "fluentLocationRef": "UK",
    "storefront_WebsiteBrand": "n/a",
    "defaultWH": 101,
    "defaultWHName": "Citadel - Virtual Warehouse"
  },
  {
    "country": "South Africa",
    "isoCode": "ZA",
    "site": "Rest of World",
    "oraclePostingStoreName": "Africa",
    "oraclePostingStoreNumber": 1050,
    "administrativeArea_Level1": "n/a",
    "countryMapping": "South Africa",
    "fluentLocationRef": "UK",
    "storefront_WebsiteBrand": "n/a",
    "defaultWH": 101,
    "defaultWHName": "Citadel - Virtual Warehouse"
  },
  {
    "country": "Taiwan",
    "isoCode": "TW",
    "site": "Rest of World",
    "oraclePostingStoreName": "Rest of Asia",
    "oraclePostingStoreNumber": 1058,
    "administrativeArea_Level1": "n/a",
    "countryMapping": "Taiwan",
    "fluentLocationRef": "UK",
    "storefront_WebsiteBrand": "n/a",
    "defaultWH": 101,
    "defaultWHName": "Citadel - Virtual Warehouse"
  },
  {
    "country": "Thailand",
    "isoCode": "TH",
    "site": "Rest of World",
    "oraclePostingStoreName": "Rest of Asia",
    "oraclePostingStoreNumber": 1058,
    "administrativeArea_Level1": "n/a",
    "countryMapping": "Thailand",
    "fluentLocationRef": "UK",
    "storefront_WebsiteBrand": "n/a",
    "defaultWH": 101,
    "defaultWHName": "Citadel - Virtual Warehouse"
  },
  {
    "country": "Turkey",
    "isoCode": "TR",
    "site": "Rest of World",
    "oraclePostingStoreName": "Rest of Eastern Europe",
    "oraclePostingStoreNumber": 1059,
    "administrativeArea_Level1": "n/a",
    "countryMapping": "Turkey",
    "fluentLocationRef": "UK",
    "storefront_WebsiteBrand": "n/a",
    "defaultWH": 101,
    "defaultWHName": "Citadel - Virtual Warehouse"
  },
  {
    "country": "United Arab Emirates",
    "isoCode": "AE",
    "site": "Rest of World",
    "oraclePostingStoreName": "Middle East",
    "oraclePostingStoreNumber": 1054,
    "administrativeArea_Level1": "n/a",
    "countryMapping": "United Arab Emirates",
    "fluentLocationRef": "UK",
    "storefront_WebsiteBrand": "n/a",
    "defaultWH": 101,
    "defaultWHName": "Citadel - Virtual Warehouse"
  },
  {
    "country": "Uzbekistan",
    "isoCode": "UZ",
    "site": "Rest of World",
    "oraclePostingStoreName": "Rest of Asia",
    "oraclePostingStoreNumber": 1058,
    "administrativeArea_Level1": "n/a",
    "countryMapping": "Uzbekistan",
    "fluentLocationRef": "UK",
    "storefront_WebsiteBrand": "n/a",
    "defaultWH": 101,
    "defaultWHName": "Citadel - Virtual Warehouse"
  },
  {
    "country": "Vietnam",
    "isoCode": "VN",
    "site": "Rest of World",
    "oraclePostingStoreName": "Rest of Asia",
    "oraclePostingStoreNumber": 1058,
    "administrativeArea_Level1": "n/a",
    "countryMapping": "Vietnam",
    "fluentLocationRef": "UK",
    "storefront_WebsiteBrand": "n/a",
    "defaultWH": 101,
    "defaultWHName": "Citadel - Virtual Warehouse"
  },
  {
    "country": "United Kingdom (Wiggle)",
    "isoCode": "GB",
    "site": "United Kingdom",
    "oraclePostingStoreName": "UK Wiggle",
    "oraclePostingStoreNumber": 1001,
    "administrativeArea_Level1": "n/a",
    "countryMapping": "United Kingdom",
    "fluentLocationRef": "UK",
    "storefront_WebsiteBrand": "Wiggle",
    "defaultWH": 101,
    "defaultWHName": "Citadel - Virtual Warehouse"
  },
  {
    "country": "United Kingdom (CRC)",
    "isoCode": "GB",
    "site": "United Kingdom",
    "oraclePostingStoreName": "UK CRC",
    "oraclePostingStoreNumber": 1002,
    "administrativeArea_Level1": "n/a",
    "countryMapping": "United Kingdom",
    "fluentLocationRef": "UK",
    "storefront_WebsiteBrand": "CRC",
    "defaultWH": 101,
    "defaultWHName": "Citadel - Virtual Warehouse"
  },
  {
    "country": "Guernsey",
    "isoCode": "GG",
    "site": "United Kingdom",
    "oraclePostingStoreName": "Guernsey",
    "oraclePostingStoreNumber": 1003,
    "administrativeArea_Level1": "n/a",
    "countryMapping": "Guernsey",
    "fluentLocationRef": "UK",
    "storefront_WebsiteBrand": "n/a",
    "defaultWH": 101,
    "defaultWHName": "Citadel - Virtual Warehouse"
  },
  {
    "country": "Jersey",
    "isoCode": "JE",
    "site": "United Kingdom",
    "oraclePostingStoreName": "Jersey",
    "oraclePostingStoreNumber": 1004,
    "administrativeArea_Level1": "n/a",
    "countryMapping": "Jersey",
    "fluentLocationRef": "UK",
    "storefront_WebsiteBrand": "n/a",
    "defaultWH": 101,
    "defaultWHName": "Citadel - Virtual Warehouse"
  },
  {
    "country": "Gibraltar",
    "isoCode": "GI",
    "site": "United Kingdom",
    "oraclePostingStoreName": "Gibraltar",
    "oraclePostingStoreNumber": 1005,
    "administrativeArea_Level1": "n/a",
    "countryMapping": "Gibraltar",
    "fluentLocationRef": "UK",
    "storefront_WebsiteBrand": "n/a",
    "defaultWH": 101,
    "defaultWHName": "Citadel - Virtual Warehouse"
  },
  {
    "country": "USA",
    "isoCode": "US",
    "site": "USA",
    "oraclePostingStoreName": "USA",
    "oraclePostingStoreNumber": 1047,
    "administrativeArea_Level1": "n/a",
    "countryMapping": "USA",
    "fluentLocationRef": "UK",
    "storefront_WebsiteBrand": "n/a",
    "defaultWH": 101,
    "defaultWHName": "Citadel - Virtual Warehouse"
  },
  {
    "country": "USA",
    "isoCode": "US",
    "site": "USA",
    "oraclePostingStoreName": "USA - WH 3PL",
    "oraclePostingStoreNumber": 2047,
    "administrativeArea_Level1": "n/a",
    "countryMapping": "USA",
    "fluentLocationRef": "US",
    "storefront_WebsiteBrand": "n/a",
    "defaultWH": 301,
    "defaultWHName": "USA 3PL  - Virtual Warehouse"
  }

]