createBatchJob,createInventoryJob,createOrder,getOrder,payment,getOrder,pickUpdate-1,pickUpdate-2,getOrder,packUpdate-1,packUpdate-2,getOrder,dispatchUpdate-1,getOrder
,,"response.data.createOrder.status.equalsIgnoreCase(""CREATED"")","response.data.order.status.equalsIgnoreCase(""PENDING_PAYMENT"")",,"response.data.order.status.equalsIgnoreCase(""BOOKED"")",,,"response.data.order.status.equalsIgnoreCase(""PICK_PACK"")",,,"response.data.order.status.equalsIgnoreCase(""AWAITING_COURIER"")",,"response.data.order.status.equalsIgnoreCase(""SHIPPED"")"
,,,"response.data.order.fulfilments.edges[0].node.status.equalsIgnoreCase(""PENDING_PAYMENT"")",,"response.data.order.fulfilments.edges[0].node.status.equalsIgnoreCase(""ASSIGNED"")",,,"response.data.order.fulfilments.edges[0].node.status.equalsIgnoreCase(""PICK"")",,,"response.data.order.fulfilments.edges[0].node.status.equalsIgnoreCase(""AWAITING_COURIER"")",,"response.data.order.fulfilments.edges[0].node.status.equalsIgnoreCase(""SHIPPED"")"
,,,"response.data.order.fulfilments.edges[1].node.status.equalsIgnoreCase(""PENDING_PAYMENT"")",,"response.data.order.fulfilments.edges[1].node.status.equalsIgnoreCase(""ASSIGNED"")",,,"response.data.order.fulfilments.edges[1].node.status.equalsIgnoreCase(""PICK"")",,,"response.data.order.fulfilments.edges[1].node.status.equalsIgnoreCase(""CANCELLED"")",,