{
  "name": "GIFTCARDREGISTRATION:SUCCESS",
  "accountId": "{{ACCOUNT}}",
  "retailerId": "{{retailer_id}}",
  "entityId": "{{fluent.retailer.current.order.fulfilment.id}}",
  "entityType": "FULFILMENT",
  "rootEntityId":"{{fluent.retailer.current.order.last_id}}",
  "rootEntityType": "ORDER",
  "attributes":{
    "response":[{
      "transactionId" : "9d334743-db80-47cd-8346-d71d21e80e53",
      "result":"120",
      "transactionRef": "948347:6949",
      "giftCardNumber": "123456789",
      "certificateBalance": "80.0",
      "certificateExpiryDate" : "2021-11-23T12:30",
      "receiptMessage": "success",
      "comments": "test"
    }]
  }
}