createBatchJob,createInventoryJob,createOrder,payment,getOrder,pickUpdate,getOrder,packUpdate,getOrder,dispatchUpdate,getOrder
response.id != null,,"response.data.createOrder.status.equalsIgnoreCase(""CREATED"")",,"response.data.order.status.equalsIgnoreCase(""BOOKED"")",,"response.data.order.status.equalsIgnoreCase(""PICK_PACK"")",,"response.data.order.status.equalsIgnoreCase(""AWAITING_COURIER"")",,"response.data.order.status.equalsIgnoreCase(""SHIPPED"")"
,,,,"response.data.order.fulfilments.edges[0].node.status.equalsIgnoreCase(""CANCELLED"")",,"response.data.order.fulfilments.edges[0].node.status.equalsIgnoreCase(""CANCELLED"")",,"response.data.order.fulfilments.edges[0].node.status.equalsIgnoreCase(""CANCELLED"")",,"response.data.order.fulfilments.edges[0].node.status.equalsIgnoreCase(""CANCELLED"")"
,,,,"response.data.order.fulfilments.edges[1].node.status.equalsIgnoreCase(""ASSIGNED"")",,"response.data.order.fulfilments.edges[1].node.status.equalsIgnoreCase(""PICK"")",,response.data.order.fulfilments.edges[0].node.items.edges[0].node.rejectedQuantity == 1,,"response.data.order.fulfilments.edges[1].node.status.equalsIgnoreCase(""SHIPPED"")"
,,,,,,,,"response.data.order.fulfilments.edges[1].node.status.equalsIgnoreCase(""AWAITING_COURIER"")",,