createBatchJob,createInventoryJob,createOrder,getOrder,payment,getOrder,pickUpdate,getOrder,packUpdate,getOrder,dispatchUpdate,getOrder,deliveredUpdate,getOrder
,,"response.data.createOrder.status.equalsIgnoreCase(""CREATED"")","response.data.order.status.equalsIgnoreCase(""PENDING_PAYMENT"")",,"response.data.order.status.equalsIgnoreCase(""BOOKED"")",,"response.data.order.status.equalsIgnoreCase(""PICK_PACK"")",,"response.data.order.status.equalsIgnoreCase(""AWAITING_COURIER"")",,"response.data.order.status.equalsIgnoreCase(""SHIPPED"")",,"response.data.order.status.equalsIgnoreCase(""DELIVERED"")"
,,,"response.data.order.fulfilments.edges[0].node.status.equalsIgnoreCase(""PENDING_PAYMENT"")",,"response.data.order.fulfilments.edges[0].node.status.equalsIgnoreCase(""ASSIGNED"")",,"response.data.order.fulfilments.edges[0].node.status.equalsIgnoreCase(""PICK"")",,"response.data.order.fulfilments.edges[0].node.status.equalsIgnoreCase(""AWAITING_COURIER"")",,"response.data.order.fulfilments.edges[0].node.status.equalsIgnoreCase(""SHIPPED"")",,"response.data.order.fulfilments.edges[0].node.status.equalsIgnoreCase(""DELIVERED"")"
