{
    "retailerId": "<RetailerId>",
    "version": "1.0",
    "entityType": "FULFILMENT_OPTIONS",
    "entitySubtype": "DEFAULT",
    "description": "This workflow defines the orchestration for Product Availability the Fulfilment Options API",
    "versionComment": "Demo Version",
    "createdBy": "<RetailerName> ",
    "createdOn": "2020-03-11T05:01:01.535+0000",
    "id": null,
    "name": "SFCC_FULFILMENT_OPTIONS::DEFAULT",
    "rulesets": [
        {
            "name": "CREATE",
            "description": "This ruleset will attempt to create fulfilment plans for a selected location that will take up to a given time to fulfil, and then locations within the given network able to fulfil the order within a given time.",
            "type": "FULFILMENT_OPTIONS",
            "eventType": "NORMAL",
            "rules": [
                {
                    "name": "FLUENTRETAIL.base.CreateFulfilmentPlansSFCC",
                    "props": {
                        "eta": "4 Hour",
                        "virtualCatalogueRef": "BASE:1"
                    }
                },
                {
                    "name": "FLUENTRETAIL.base.ChangeState",
                    "props": {
                        "status": "OPTIONS_PROVIDED"
                    }
                    
                }
            ],
            "triggers": [
                {
                    "status": "CREATED"
                },
                {
                    "status": "OPTIONS_PROVIDED"
                }
            ],
            "userActions": []
        },
        {
            "name": "CREATE",
            "description": "This ruleset tracks the generation of a ",
            "type": "FULFILMENT_PLAN",
            "eventType": "NORMAL",
            "rules": [
                {
                    "name": "FLUENTRETAIL.base.ChangeState",
                    "props": {
                        "status": "PLAN_GENERATED"
                    }
                }
            ],
            "triggers": [
                {
                    "status": "CREATED"
                }
            ],
            "userActions": []
        }
    ],
    "statuses": [
        {
            "name": "CREATED",
            "entityType": "FULFILMENT_OPTIONS",
            "category": "GENERATION"
        },
        {
            "name": "CREATED",
            "entityType": "FULFILMENT_PLAN",
            "category": "GENERATION"
        },
        {
            "name": "OPTIONS_PROVIDED",
            "entityType": "FULFILMENT_OPTIONS",
            "category": "GENERATION"
        },
        {
            "name": "PLAN_GENERATED",
            "entityType": "FULFILMENT_PLAN",
            "category": "GENERATION"
        }
    ]
}
