{
  "retailerId": "1",
  "version": "22.0",
  "entityType": "RETURN_ORDER",
  "entitySubtype": "DEFAULT",
  "description": "Basic workflow template",
  "versionComment": "First version",
  "createdBy": "RETOGS1 ",
  "createdOn": "2019-04-24T00:28:32.771+0000",
  "id": null,
  "name": "RETURN_ORDER::DEFAULT",
  "rulesets": [
    {
      "name": "CREATE",
      "description": "Create ReturnOrder",
      "type": "RETURN_ORDER",
      "subtype": "DEFAULT",
      "eventType": "NORMAL",
      "rules": [
        {
          "name": "FLUENTRETAIL.base.ChangeStateGQL",
          "props": {
            "status": "BOOKED"
          }
        },
        {
          "name": "FLUENTRETAIL.base.SendEventToReturns",
          "props": {
            "eventName": "FulfilReturn"
          }
        },
        {
          "name": "FLUENTRETAIL.base.SendEventToReturns",
          "props": {
            "eventName": "CheckBillingAccount"
          }
        }
      ],
      "triggers": [
        {
          "status": "CREATED"
        }
      ],
      "userActions": []
    },
    {
      "name": "CREATE",
      "description": "CREATE RETURN_ORDER_FULFILMENT",
      "type": "RETURN_ORDER_FULFILMENT",
      "subtype": "DEFAULT",
      "eventType": "NORMAL",
      "rules": [
        {
          "name": "FLUENTRETAIL.base.ChangeStateGQL",
          "props": {
            "status": "COMPLETE"
          }
        }
      ],
      "triggers": [
        {
          "status": "CREATED"
        }
      ],
      "userActions": []
    },
    {
      "name": "FulfilReturn",
      "description": "ReturnOrder",
      "type": "RETURN_ORDER",
      "eventType": "NORMAL",
      "rules": [
        {
          "name": "FLUENTRETAIL.base.CreateReturnFulfilment",
          "props": null
        },
        {
          "name": "FLUENTRETAIL.base.ChangeStateGQL",
          "props": {
            "status": "PENDING_REFUND"
          }
        },
        {
          "name": "FLUENTRETAIL.base.SendEventToUpdateOrderItemAttribute",
          "props": {
            "eventName": "UpdateReturnableQty"
          }
        }
      ],
      "triggers": [
        {
          "status": "BOOKED"
        },
        {
          "status": "CREATED"
        }
      ],
      "userActions": []
    },
    {
      "name": "CheckBillingAccount",
      "description": "BillingAccount",
      "type": "RETURN_ORDER",
      "eventType": "NORMAL",
      "rules": [
        {
          "name": "FLUENTRETAIL.base.VerifyBillingAccount",
          "props": {
            "BillingAccountExistsEventName": "ProcessBillingAccount",
            "NoBillingAccountExistsEventName": "NewBillingAccount"
          }
        }
      ],
      "triggers": [
        {
          "status": "BOOKED"
        },
        {
          "status": "PENDING_REFUND"
        }
      ],
      "userActions": []
    },
    {
      "name": "NewBillingAccount",
      "description": "ReturnOrder",
      "type": "RETURN_ORDER",
      "eventType": "NORMAL",
      "rules": [
        {
          "name": "FLUENTRETAIL.base.CreateBillingAccount",
          "props": {
            "eventName": "ProcessBillingAccount"
          }
        }
      ],
      "triggers": [],
      "userActions": []
    },
    {
      "name": "ProcessBillingAccount",
      "description": "ReturnOrder",
      "type": "RETURN_ORDER",
      "eventType": "NORMAL",
      "rules": [
        {
          "name": "FLUENTRETAIL.base.SendEventForReturnToBillingAccount",
          "props": {
            "eventName": "ProcessCredit"
          }
        }
      ],
      "triggers": [
        {
          "status": "PENDING_REFUND"
        },
        {
          "status": "CREATED"
        },
        {
          "status": "BOOKED"
        }
      ],
      "userActions": []
    },
    {
      "name": "RefundComplete",
      "description": "ReturnOrder",
      "type": "RETURN_ORDER",
      "subtype": "DEFAULT",
      "eventType": "NORMAL",
      "rules": [
        {
          "name": "FLUENTRETAIL.base.SendEventForReturnToOrder",
          "props": {
            "eventName": "OrderReturnComplete"
          }
        },
        {
          "name": "FLUENTRETAIL.base.ChangeStateGQL",
          "props": {
            "status": "COMPLETE"
          }
        }
      ],
      "triggers": [
        {
          "status": "PENDING_REFUND"
        }
      ],
      "userActions": []
    },
    {
      "name": "RefundRejected",
      "description": "ReturnOrder",
      "type": "RETURN_ORDER",
      "subtype": "DEFAULT",
      "eventType": "NORMAL",
      "rules": [
        {
          "name": "FLUENTRETAIL.base.ChangeStateGQL",
          "props": {
            "status": "ESCALATED"
          }
        }
      ],
      "triggers": [
        {
          "status": "PENDING_REFUND"
        }
      ],
      "userActions": []
    }
  ],
  "statuses": [
    {
      "name": "CREATED",
      "entityType": "RETURN_ORDER",
      "category": "BOOKING"
    },
    {
      "name": "COMPLETE",
      "entityType": "RETURN_ORDER_FULFILMENT",
      "category": "DONE"
    },
    {
      "name": "BOOKED",
      "entityType": "RETURN_ORDER",
      "category": "BOOKING"
    },
    {
      "name": "ESCALATED",
      "entityType": "RETURN_ORDER",
      "category": "DELIVERY"
    },
    {
      "name": "COMPLETE",
      "entityType": "RETURN_ORDER",
      "category": "DONE"
    },
    {
      "name": "CREATED",
      "entityType": "RETURN_ORDER_FULFILMENT",
      "category": "BOOKING"
    },
    {
      "name": "CREATED",
      "entityType": "BILLING_ACCOUNT",
      "category": "BOOKING"
    },
    {
      "name": "PENDING_REFUND",
      "entityType": "RETURN_ORDER",
      "category": "DELIVERY"
    },
    {
      "entityType": "RETURN_ORDER_FULFILMENT",
      "category": ""
    },
    {
      "entityType": "RETURN_ORDER",
      "category": ""
    },
    {
      "name": "CREATED",
      "entityType": "ORDER",
      "category": ""
    },
    {
      "name": "BOOKED",
      "entityType": "ORDER",
      "category": ""
    },
    {
      "name": "",
      "entityType": "BILLING_ACCOUNT",
      "category": "BOOKING"
    },
    {
      "name": "",
      "entityType": "RETURN_ORDER",
      "category": "BOOKING"
    }
  ]
}